%!PS-Adobe-3.0 EPSF-3.0
%%Creator: (MATLAB, The Mathworks, Inc. Version 9.5.0.944444 \(R2018b\). Operating System: Mac OS X)
%%Title: /Users/karollewandowski/Desktop/mums_vs_fieldsplit.eps
%%CreationDate: 2019-11-09T23:05:35
%%Pages: (atend)
%%BoundingBox: 0 0 560 420
%%LanguageLevel: 3
%%EndComments
%%BeginProlog
%%BeginResource: procset (Apache XML Graphics Std ProcSet) 1.2 0
%%Version: 1.2 0
%%Copyright: (Copyright 2001-2003,2010 The Apache Software Foundation. License terms: http://www.apache.org/licenses/LICENSE-2.0)
/bd{bind def}bind def
/ld{load def}bd
/GR/grestore ld
/GS/gsave ld
/RM/rmoveto ld
/C/curveto ld
/t/show ld
/L/lineto ld
/ML/setmiterlimit ld
/CT/concat ld
/f/fill ld
/N/newpath ld
/S/stroke ld
/CC/setcmykcolor ld
/A/ashow ld
/cp/closepath ld
/RC/setrgbcolor ld
/LJ/setlinejoin ld
/GC/setgray ld
/LW/setlinewidth ld
/M/moveto ld
/re {4 2 roll M
1 index 0 rlineto
0 exch rlineto
neg 0 rlineto
cp } bd
/_ctm matrix def
/_tm matrix def
/BT { _ctm currentmatrix pop matrix _tm copy pop 0 0 moveto } bd
/ET { _ctm setmatrix } bd
/iTm { _ctm setmatrix _tm concat } bd
/Tm { _tm astore pop iTm 0 0 moveto } bd
/ux 0.0 def
/uy 0.0 def
/F {
  /Tp exch def
  /Tf exch def
  Tf findfont Tp scalefont setfont
  /cf Tf def  /cs Tp def
} bd
/ULS {currentpoint /uy exch def /ux exch def} bd
/ULE {
  /Tcx currentpoint pop def
  gsave
  newpath
  cf findfont cs scalefont dup
  /FontMatrix get 0 get /Ts exch def /FontInfo get dup
  /UnderlinePosition get Ts mul /To exch def
  /UnderlineThickness get Ts mul /Tt exch def
  ux uy To add moveto  Tcx uy To add lineto
  Tt setlinewidth stroke
  grestore
} bd
/OLE {
  /Tcx currentpoint pop def
  gsave
  newpath
  cf findfont cs scalefont dup
  /FontMatrix get 0 get /Ts exch def /FontInfo get dup
  /UnderlinePosition get Ts mul /To exch def
  /UnderlineThickness get Ts mul /Tt exch def
  ux uy To add cs add moveto Tcx uy To add cs add lineto
  Tt setlinewidth stroke
  grestore
} bd
/SOE {
  /Tcx currentpoint pop def
  gsave
  newpath
  cf findfont cs scalefont dup
  /FontMatrix get 0 get /Ts exch def /FontInfo get dup
  /UnderlinePosition get Ts mul /To exch def
  /UnderlineThickness get Ts mul /Tt exch def
  ux uy To add cs 10 mul 26 idiv add moveto Tcx uy To add cs 10 mul 26 idiv add lineto
  Tt setlinewidth stroke
  grestore
} bd
/QT {
/Y22 exch store
/X22 exch store
/Y21 exch store
/X21 exch store
currentpoint
/Y21 load 2 mul add 3 div exch
/X21 load 2 mul add 3 div exch
/X21 load 2 mul /X22 load add 3 div
/Y21 load 2 mul /Y22 load add 3 div
/X22 load /Y22 load curveto
} bd
/SSPD {
dup length /d exch dict def
{
/v exch def
/k exch def
currentpagedevice k known {
/cpdv currentpagedevice k get def
v cpdv ne {
/upd false def
/nullv v type /nulltype eq def
/nullcpdv cpdv type /nulltype eq def
nullv nullcpdv or
{
/upd true def
} {
/sametype v type cpdv type eq def
sametype {
v type /arraytype eq {
/vlen v length def
/cpdvlen cpdv length def
vlen cpdvlen eq {
0 1 vlen 1 sub {
/i exch def
/obj v i get def
/cpdobj cpdv i get def
obj cpdobj ne {
/upd true def
exit
} if
} for
} {
/upd true def
} ifelse
} {
v type /dicttype eq {
v {
/dv exch def
/dk exch def
/cpddv cpdv dk get def
dv cpddv ne {
/upd true def
exit
} if
} forall
} {
/upd true def
} ifelse
} ifelse
} if
} ifelse
upd true eq {
d k v put
} if
} if
} if
} forall
d length 0 gt {
d setpagedevice
} if
} bd
/RE { % /NewFontName [NewEncodingArray] /FontName RE -
  findfont dup length dict begin
  {
    1 index /FID ne
    {def} {pop pop} ifelse
  } forall
  /Encoding exch def
  /FontName 1 index def
  currentdict definefont pop
  end
} bind def
%%EndResource
%%BeginResource: procset (Apache XML Graphics EPS ProcSet) 1.0 0
%%Version: 1.0 0
%%Copyright: (Copyright 2002-2003 The Apache Software Foundation. License terms: http://www.apache.org/licenses/LICENSE-2.0)
/BeginEPSF { %def
/b4_Inc_state save def         % Save state for cleanup
/dict_count countdictstack def % Count objects on dict stack
/op_count count 1 sub def      % Count objects on operand stack
userdict begin                 % Push userdict on dict stack
/showpage { } def              % Redefine showpage, { } = null proc
0 setgray 0 setlinecap         % Prepare graphics state
1 setlinewidth 0 setlinejoin
10 setmiterlimit [ ] 0 setdash newpath
/languagelevel where           % If level not equal to 1 then
{pop languagelevel             % set strokeadjust and
1 ne                           % overprint to their defaults.
{false setstrokeadjust false setoverprint
} if
} if
} bd
/EndEPSF { %def
count op_count sub {pop} repeat            % Clean up stacks
countdictstack dict_count sub {end} repeat
b4_Inc_state restore
} bd
%%EndResource
%FOPBeginFontDict
%%IncludeResource: font Courier-Oblique
%%IncludeResource: font Courier-BoldOblique
%%IncludeResource: font Courier-Bold
%%IncludeResource: font ZapfDingbats
%%IncludeResource: font Symbol
%%IncludeResource: font Helvetica
%%IncludeResource: font Helvetica-Oblique
%%IncludeResource: font Helvetica-Bold
%%IncludeResource: font Helvetica-BoldOblique
%%IncludeResource: font Times-Roman
%%IncludeResource: font Times-Italic
%%IncludeResource: font Times-Bold
%%IncludeResource: font Times-BoldItalic
%%IncludeResource: font Courier
%FOPEndFontDict
%%BeginResource: encoding WinAnsiEncoding
/WinAnsiEncoding [
/.notdef /.notdef /.notdef /.notdef /.notdef
/.notdef /.notdef /.notdef /.notdef /.notdef
/.notdef /.notdef /.notdef /.notdef /.notdef
/.notdef /.notdef /.notdef /.notdef /.notdef
/.notdef /.notdef /.notdef /.notdef /.notdef
/.notdef /.notdef /.notdef /.notdef /.notdef
/.notdef /.notdef /space /exclam /quotedbl
/numbersign /dollar /percent /ampersand /quotesingle
/parenleft /parenright /asterisk /plus /comma
/hyphen /period /slash /zero /one
/two /three /four /five /six
/seven /eight /nine /colon /semicolon
/less /equal /greater /question /at
/A /B /C /D /E
/F /G /H /I /J
/K /L /M /N /O
/P /Q /R /S /T
/U /V /W /X /Y
/Z /bracketleft /backslash /bracketright /asciicircum
/underscore /quoteleft /a /b /c
/d /e /f /g /h
/i /j /k /l /m
/n /o /p /q /r
/s /t /u /v /w
/x /y /z /braceleft /bar
/braceright /asciitilde /bullet /Euro /bullet
/quotesinglbase /florin /quotedblbase /ellipsis /dagger
/daggerdbl /circumflex /perthousand /Scaron /guilsinglleft
/OE /bullet /Zcaron /bullet /bullet
/quoteleft /quoteright /quotedblleft /quotedblright /bullet
/endash /emdash /asciitilde /trademark /scaron
/guilsinglright /oe /bullet /zcaron /Ydieresis
/space /exclamdown /cent /sterling /currency
/yen /brokenbar /section /dieresis /copyright
/ordfeminine /guillemotleft /logicalnot /sfthyphen /registered
/macron /degree /plusminus /twosuperior /threesuperior
/acute /mu /paragraph /middot /cedilla
/onesuperior /ordmasculine /guillemotright /onequarter /onehalf
/threequarters /questiondown /Agrave /Aacute /Acircumflex
/Atilde /Adieresis /Aring /AE /Ccedilla
/Egrave /Eacute /Ecircumflex /Edieresis /Igrave
/Iacute /Icircumflex /Idieresis /Eth /Ntilde
/Ograve /Oacute /Ocircumflex /Otilde /Odieresis
/multiply /Oslash /Ugrave /Uacute /Ucircumflex
/Udieresis /Yacute /Thorn /germandbls /agrave
/aacute /acircumflex /atilde /adieresis /aring
/ae /ccedilla /egrave /eacute /ecircumflex
/edieresis /igrave /iacute /icircumflex /idieresis
/eth /ntilde /ograve /oacute /ocircumflex
/otilde /odieresis /divide /oslash /ugrave
/uacute /ucircumflex /udieresis /yacute /thorn
/ydieresis
] def
%%EndResource
%FOPBeginFontReencode
/Courier-Oblique findfont
dup length dict begin
  {1 index /FID ne {def} {pop pop} ifelse} forall
  /Encoding WinAnsiEncoding def
  currentdict
end
/Courier-Oblique exch definefont pop
/Courier-BoldOblique findfont
dup length dict begin
  {1 index /FID ne {def} {pop pop} ifelse} forall
  /Encoding WinAnsiEncoding def
  currentdict
end
/Courier-BoldOblique exch definefont pop
/Courier-Bold findfont
dup length dict begin
  {1 index /FID ne {def} {pop pop} ifelse} forall
  /Encoding WinAnsiEncoding def
  currentdict
end
/Courier-Bold exch definefont pop
/Helvetica findfont
dup length dict begin
  {1 index /FID ne {def} {pop pop} ifelse} forall
  /Encoding WinAnsiEncoding def
  currentdict
end
/Helvetica exch definefont pop
/Helvetica-Oblique findfont
dup length dict begin
  {1 index /FID ne {def} {pop pop} ifelse} forall
  /Encoding WinAnsiEncoding def
  currentdict
end
/Helvetica-Oblique exch definefont pop
/Helvetica-Bold findfont
dup length dict begin
  {1 index /FID ne {def} {pop pop} ifelse} forall
  /Encoding WinAnsiEncoding def
  currentdict
end
/Helvetica-Bold exch definefont pop
/Helvetica-BoldOblique findfont
dup length dict begin
  {1 index /FID ne {def} {pop pop} ifelse} forall
  /Encoding WinAnsiEncoding def
  currentdict
end
/Helvetica-BoldOblique exch definefont pop
/Times-Roman findfont
dup length dict begin
  {1 index /FID ne {def} {pop pop} ifelse} forall
  /Encoding WinAnsiEncoding def
  currentdict
end
/Times-Roman exch definefont pop
/Times-Italic findfont
dup length dict begin
  {1 index /FID ne {def} {pop pop} ifelse} forall
  /Encoding WinAnsiEncoding def
  currentdict
end
/Times-Italic exch definefont pop
/Times-Bold findfont
dup length dict begin
  {1 index /FID ne {def} {pop pop} ifelse} forall
  /Encoding WinAnsiEncoding def
  currentdict
end
/Times-Bold exch definefont pop
/Times-BoldItalic findfont
dup length dict begin
  {1 index /FID ne {def} {pop pop} ifelse} forall
  /Encoding WinAnsiEncoding def
  currentdict
end
/Times-BoldItalic exch definefont pop
/Courier findfont
dup length dict begin
  {1 index /FID ne {def} {pop pop} ifelse} forall
  /Encoding WinAnsiEncoding def
  currentdict
end
/Courier exch definefont pop
%FOPEndFontReencode
%%EndProlog
%%Page: 1 1
%%PageBoundingBox: 0 0 560 420
%%BeginPageSetup
[1 0 0 -1 0 420] CT
%%EndPageSetup
GS
1 GC
N
0 0 560 420 re
f
GR
GS
1 GC
N
0 0 560 420 re
f
GR
GS
1 GC
N
73 362 M
507 362 L
507 31.5 L
73 31.5 L
cp
f
GR
GS
0.775 GC
[1 3] 0 setdash
2 LJ
0.5 LW
N
138.324 362 M
138.324 31.5 L
S
GR
GS
0.775 GC
[1 3] 0 setdash
2 LJ
0.5 LW
N
176.535 362 M
176.535 31.5 L
S
GR
GS
0.775 GC
[1 3] 0 setdash
2 LJ
0.5 LW
N
203.647 362 M
203.647 31.5 L
S
GR
GS
0.775 GC
[1 3] 0 setdash
2 LJ
0.5 LW
N
224.676 362 M
224.676 31.5 L
S
GR
GS
0.775 GC
[1 3] 0 setdash
2 LJ
0.5 LW
N
241.859 362 M
241.859 31.5 L
S
GR
GS
0.775 GC
[1 3] 0 setdash
2 LJ
0.5 LW
N
256.386 362 M
256.386 31.5 L
S
GR
GS
0.775 GC
[1 3] 0 setdash
2 LJ
0.5 LW
N
268.971 362 M
268.971 31.5 L
S
GR
GS
0.775 GC
[1 3] 0 setdash
2 LJ
0.5 LW
N
280.071 362 M
280.071 31.5 L
S
GR
GS
0.775 GC
[1 3] 0 setdash
2 LJ
0.5 LW
N
355.324 362 M
355.324 31.5 L
S
GR
GS
0.775 GC
[1 3] 0 setdash
2 LJ
0.5 LW
N
393.535 362 M
393.535 31.5 L
S
GR
GS
0.775 GC
[1 3] 0 setdash
2 LJ
0.5 LW
N
420.647 362 M
420.647 31.5 L
S
GR
GS
0.775 GC
[1 3] 0 setdash
2 LJ
0.5 LW
N
441.676 362 M
441.676 31.5 L
S
GR
GS
0.775 GC
[1 3] 0 setdash
2 LJ
0.5 LW
N
458.859 362 M
458.859 31.5 L
S
GR
GS
0.775 GC
[1 3] 0 setdash
2 LJ
0.5 LW
N
473.386 362 M
473.386 31.5 L
S
GR
GS
0.775 GC
[1 3] 0 setdash
2 LJ
0.5 LW
N
485.971 362 M
485.971 31.5 L
S
GR
GS
0.775 GC
[1 3] 0 setdash
2 LJ
0.5 LW
N
497.071 362 M
497.071 31.5 L
S
GR
GS
0.873 GC
1 LJ
0.5 LW
N
73 362 M
73 31.5 L
S
GR
GS
0.873 GC
1 LJ
0.5 LW
N
290 362 M
290 31.5 L
S
GR
GS
0.873 GC
1 LJ
0.5 LW
N
507 362 M
507 31.5 L
S
GR
GS
0.775 GC
[1 3] 0 setdash
2 LJ
0.5 LW
N
507 346.924 M
73 346.924 L
S
GR
GS
0.775 GC
[1 3] 0 setdash
2 LJ
0.5 LW
N
507 319.152 M
73 319.152 L
S
GR
GS
0.775 GC
[1 3] 0 setdash
2 LJ
0.5 LW
N
507 299.448 M
73 299.448 L
S
GR
GS
0.775 GC
[1 3] 0 setdash
2 LJ
0.5 LW
N
507 284.164 M
73 284.164 L
S
GR
GS
0.775 GC
[1 3] 0 setdash
2 LJ
0.5 LW
N
507 271.676 M
73 271.676 L
S
GR
GS
0.775 GC
[1 3] 0 setdash
2 LJ
0.5 LW
N
507 261.118 M
73 261.118 L
S
GR
GS
0.775 GC
[1 3] 0 setdash
2 LJ
0.5 LW
N
507 251.972 M
73 251.972 L
S
GR
GS
0.775 GC
[1 3] 0 setdash
2 LJ
0.5 LW
N
507 243.904 M
73 243.904 L
S
GR
GS
0.775 GC
[1 3] 0 setdash
2 LJ
0.5 LW
N
507 189.212 M
73 189.212 L
S
GR
GS
0.775 GC
[1 3] 0 setdash
2 LJ
0.5 LW
N
507 161.44 M
73 161.44 L
S
GR
GS
0.775 GC
[1 3] 0 setdash
2 LJ
0.5 LW
N
507 141.736 M
73 141.736 L
S
GR
GS
0.775 GC
[1 3] 0 setdash
2 LJ
0.5 LW
N
507 126.452 M
73 126.452 L
S
GR
GS
0.775 GC
[1 3] 0 setdash
2 LJ
0.5 LW
N
507 113.964 M
73 113.964 L
S
GR
GS
0.775 GC
[1 3] 0 setdash
2 LJ
0.5 LW
N
507 103.406 M
73 103.406 L
S
GR
GS
0.775 GC
[1 3] 0 setdash
2 LJ
0.5 LW
N
507 94.26 M
73 94.26 L
S
GR
GS
0.775 GC
[1 3] 0 setdash
2 LJ
0.5 LW
N
507 86.193 M
73 86.193 L
S
GR
GS
0.873 GC
1 LJ
0.5 LW
N
507 236.688 M
73 236.688 L
S
GR
GS
0.873 GC
1 LJ
0.5 LW
N
507 78.976 M
73 78.976 L
S
GR
GS
0.149 GC
2 setlinecap
1 LJ
0.5 LW
N
73 362 M
507 362 L
S
GR
GS
0.149 GC
2 setlinecap
1 LJ
0.5 LW
N
73 31.5 M
507 31.5 L
S
GR
GS
0.149 GC
2 setlinecap
1 LJ
0.5 LW
N
73 362 M
73 357.66 L
S
GR
GS
0.149 GC
2 setlinecap
1 LJ
0.5 LW
N
290 362 M
290 357.66 L
S
GR
GS
0.149 GC
2 setlinecap
1 LJ
0.5 LW
N
507 362 M
507 357.66 L
S
GR
GS
0.149 GC
2 setlinecap
1 LJ
0.5 LW
N
73 31.5 M
73 35.84 L
S
GR
GS
0.149 GC
2 setlinecap
1 LJ
0.5 LW
N
290 31.5 M
290 35.84 L
S
GR
GS
0.149 GC
2 setlinecap
1 LJ
0.5 LW
N
507 31.5 M
507 35.84 L
S
GR
GS
0.149 GC
2 setlinecap
1 LJ
0.5 LW
N
73 362 M
73 359.83 L
S
GR
GS
0.149 GC
2 setlinecap
1 LJ
0.5 LW
N
138.324 362 M
138.324 359.83 L
S
GR
GS
0.149 GC
2 setlinecap
1 LJ
0.5 LW
N
176.535 362 M
176.535 359.83 L
S
GR
GS
0.149 GC
2 setlinecap
1 LJ
0.5 LW
N
203.647 362 M
203.647 359.83 L
S
GR
GS
0.149 GC
2 setlinecap
1 LJ
0.5 LW
N
224.676 362 M
224.676 359.83 L
S
GR
GS
0.149 GC
2 setlinecap
1 LJ
0.5 LW
N
241.859 362 M
241.859 359.83 L
S
GR
GS
0.149 GC
2 setlinecap
1 LJ
0.5 LW
N
256.386 362 M
256.386 359.83 L
S
GR
GS
0.149 GC
2 setlinecap
1 LJ
0.5 LW
N
268.971 362 M
268.971 359.83 L
S
GR
GS
0.149 GC
2 setlinecap
1 LJ
0.5 LW
N
280.071 362 M
280.071 359.83 L
S
GR
GS
0.149 GC
2 setlinecap
1 LJ
0.5 LW
N
290 362 M
290 359.83 L
S
GR
GS
0.149 GC
2 setlinecap
1 LJ
0.5 LW
N
355.324 362 M
355.324 359.83 L
S
GR
GS
0.149 GC
2 setlinecap
1 LJ
0.5 LW
N
393.535 362 M
393.535 359.83 L
S
GR
GS
0.149 GC
2 setlinecap
1 LJ
0.5 LW
N
420.647 362 M
420.647 359.83 L
S
GR
GS
0.149 GC
2 setlinecap
1 LJ
0.5 LW
N
441.676 362 M
441.676 359.83 L
S
GR
GS
0.149 GC
2 setlinecap
1 LJ
0.5 LW
N
458.859 362 M
458.859 359.83 L
S
GR
GS
0.149 GC
2 setlinecap
1 LJ
0.5 LW
N
473.386 362 M
473.386 359.83 L
S
GR
GS
0.149 GC
2 setlinecap
1 LJ
0.5 LW
N
485.971 362 M
485.971 359.83 L
S
GR
GS
0.149 GC
2 setlinecap
1 LJ
0.5 LW
N
497.071 362 M
497.071 359.83 L
S
GR
GS
0.149 GC
2 setlinecap
1 LJ
0.5 LW
N
507 362 M
507 359.83 L
S
GR
GS
0.149 GC
2 setlinecap
1 LJ
0.5 LW
N
73 31.5 M
73 33.67 L
S
GR
GS
0.149 GC
2 setlinecap
1 LJ
0.5 LW
N
138.324 31.5 M
138.324 33.67 L
S
GR
GS
0.149 GC
2 setlinecap
1 LJ
0.5 LW
N
176.535 31.5 M
176.535 33.67 L
S
GR
GS
0.149 GC
2 setlinecap
1 LJ
0.5 LW
N
203.647 31.5 M
203.647 33.67 L
S
GR
GS
0.149 GC
2 setlinecap
1 LJ
0.5 LW
N
224.676 31.5 M
224.676 33.67 L
S
GR
GS
0.149 GC
2 setlinecap
1 LJ
0.5 LW
N
241.859 31.5 M
241.859 33.67 L
S
GR
GS
0.149 GC
2 setlinecap
1 LJ
0.5 LW
N
256.386 31.5 M
256.386 33.67 L
S
GR
GS
0.149 GC
2 setlinecap
1 LJ
0.5 LW
N
268.971 31.5 M
268.971 33.67 L
S
GR
GS
0.149 GC
2 setlinecap
1 LJ
0.5 LW
N
280.071 31.5 M
280.071 33.67 L
S
GR
GS
0.149 GC
2 setlinecap
1 LJ
0.5 LW
N
290 31.5 M
290 33.67 L
S
GR
GS
0.149 GC
2 setlinecap
1 LJ
0.5 LW
N
355.324 31.5 M
355.324 33.67 L
S
GR
GS
0.149 GC
2 setlinecap
1 LJ
0.5 LW
N
393.535 31.5 M
393.535 33.67 L
S
GR
GS
0.149 GC
2 setlinecap
1 LJ
0.5 LW
N
420.647 31.5 M
420.647 33.67 L
S
GR
GS
0.149 GC
2 setlinecap
1 LJ
0.5 LW
N
441.676 31.5 M
441.676 33.67 L
S
GR
GS
0.149 GC
2 setlinecap
1 LJ
0.5 LW
N
458.859 31.5 M
458.859 33.67 L
S
GR
GS
0.149 GC
2 setlinecap
1 LJ
0.5 LW
N
473.386 31.5 M
473.386 33.67 L
S
GR
GS
0.149 GC
2 setlinecap
1 LJ
0.5 LW
N
485.971 31.5 M
485.971 33.67 L
S
GR
GS
0.149 GC
2 setlinecap
1 LJ
0.5 LW
N
497.071 31.5 M
497.071 33.67 L
S
GR
GS
0.149 GC
2 setlinecap
1 LJ
0.5 LW
N
507 31.5 M
507 33.67 L
S
GR
GS
[1 0 0 1 58 392] CT
0.149 GC
/Helvetica-Bold 18 F
GS
[1 0 0 1 0 0] CT
0 0 moveto 
1 -1 scale
(10) t 
GR
GR
GS
[1 0 0 1 79 383] CT
0.149 GC
/Helvetica-Bold 14.4 F
GS
[1 0 0 1 0 0] CT
0 0 moveto 
1 -1 scale
(0) t 
GR
GR
GS
[1 0 0 1 275 392] CT
0.149 GC
/Helvetica-Bold 18 F
GS
[1 0 0 1 0 0] CT
0 0 moveto 
1 -1 scale
(10) t 
GR
GR
GS
[1 0 0 1 296 383] CT
0.149 GC
/Helvetica-Bold 14.4 F
GS
[1 0 0 1 0 0] CT
0 0 moveto 
1 -1 scale
(1) t 
GR
GR
GS
[1 0 0 1 492 392] CT
0.149 GC
/Helvetica-Bold 18 F
GS
[1 0 0 1 0 0] CT
0 0 moveto 
1 -1 scale
(10) t 
GR
GR
GS
[1 0 0 1 513 383] CT
0.149 GC
/Helvetica-Bold 14.4 F
GS
[1 0 0 1 0 0] CT
0 0 moveto 
1 -1 scale
(2) t 
GR
GR
GS
[1 0 0 1 290.00021 396.10001] CT
0.149 GC
N
-20.655 14.491 M
-19.968 15.366 -18.944 15.866 QT
-17.921 16.366 -16.811 16.366 QT
-15.889 16.366 -15.1 15.999 QT
-14.311 15.632 -13.718 14.976 QT
-13.124 14.319 -12.811 13.491 QT
-12.499 12.663 -12.499 11.741 QT
-12.499 11.585 -12.311 11.585 QT
-12.077 11.585 L
-11.921 11.585 -11.921 11.788 QT
-11.921 12.835 -12.319 13.804 QT
-12.718 14.773 -13.452 15.515 QT
-14.186 16.257 -15.139 16.663 QT
-16.093 17.069 -17.124 17.069 QT
-18.561 17.069 -19.843 16.491 QT
-21.124 15.913 -22.077 14.898 QT
-23.03 13.882 -23.561 12.554 QT
-24.093 11.226 -24.093 9.788 QT
-24.093 8.366 -23.561 7.038 QT
-23.03 5.71 -22.077 4.694 QT
-21.124 3.679 -19.843 3.101 QT
-18.561 2.523 -17.124 2.523 QT
-16.093 2.523 -15.155 2.968 QT
-14.218 3.413 -13.514 4.226 QT
-12.358 2.585 L
-12.233 2.523 -12.218 2.523 QT
-12.077 2.523 L
-12.014 2.523 -11.968 2.577 QT
-11.921 2.632 -11.921 2.694 QT
-11.921 8.101 L
-11.921 8.273 -12.077 8.273 QT
-12.436 8.273 L
-12.624 8.273 -12.624 8.101 QT
-12.624 7.523 -12.85 6.812 QT
-13.077 6.101 -13.436 5.46 QT
-13.796 4.819 -14.264 4.319 QT
-15.389 3.226 -16.843 3.226 QT
-17.936 3.226 -18.952 3.726 QT
-19.968 4.226 -20.655 5.101 QT
-21.389 6.038 -21.671 7.241 QT
-21.952 8.444 -21.952 9.788 QT
-21.952 11.148 -21.671 12.351 QT
-21.389 13.554 -20.655 14.491 QT
cp
f
GR
GS
[1 0 0 1 290.00021 396.10001] CT
0.149 GC
N
-10.246 16.632 M
-10.246 15.929 L
-8.199 15.929 -8.199 15.288 QT
-8.199 4.304 L
-8.199 3.679 -10.246 3.679 QT
-10.246 2.976 L
-3.136 2.976 L
-2.043 2.976 -0.949 3.421 QT
0.145 3.866 0.856 4.726 QT
1.567 5.585 1.567 6.726 QT
1.567 7.835 0.856 8.679 QT
0.145 9.523 -0.941 9.96 QT
-2.027 10.398 -3.136 10.398 QT
-6.339 10.398 L
-6.339 15.288 L
-6.339 15.929 -4.277 15.929 QT
-4.277 16.632 L
-10.246 16.632 L
cp
-6.402 9.788 M
-3.683 9.788 L
-2.574 9.788 -1.894 9.476 QT
-1.214 9.163 -0.894 8.491 QT
-0.574 7.819 -0.574 6.726 QT
-0.574 5.101 -1.293 4.39 QT
-2.011 3.679 -3.683 3.679 QT
-5.386 3.679 L
-5.746 3.679 -5.941 3.702 QT
-6.136 3.726 -6.269 3.866 QT
-6.402 4.007 -6.402 4.304 QT
-6.402 9.788 L
cp
f
GR
GS
[1 0 0 1 290.00021 396.10001] CT
0.149 GC
N
5.229 12.116 M
5.229 4.304 L
5.229 3.679 3.167 3.679 QT
3.167 2.976 L
9.167 2.976 L
9.167 3.679 L
7.104 3.679 7.104 4.304 QT
7.104 12.038 L
7.104 13.148 7.409 14.14 QT
7.714 15.132 8.44 15.749 QT
9.167 16.366 10.339 16.366 QT
11.479 16.366 12.354 15.765 QT
13.229 15.163 13.698 14.171 QT
14.167 13.179 14.167 12.038 QT
14.167 4.851 L
14.167 3.679 12.104 3.679 QT
12.104 2.976 L
16.917 2.976 L
16.917 3.679 L
14.87 3.679 14.87 4.851 QT
14.87 12.116 L
14.87 13.038 14.542 13.929 QT
14.214 14.819 13.589 15.538 QT
12.964 16.257 12.128 16.663 QT
11.292 17.069 10.339 17.069 QT
9.011 17.069 7.823 16.405 QT
6.636 15.741 5.933 14.601 QT
5.229 13.46 5.229 12.116 QT
cp
f
GR
GS
[1 0 0 1 290.00021 396.10001] CT
0.149 GC
N
18.079 16.694 M
18.079 13.429 L
18.079 13.273 18.251 13.273 QT
18.486 13.273 L
18.611 13.273 18.642 13.429 QT
19.204 16.335 21.345 16.335 QT
22.298 16.335 22.931 15.905 QT
23.564 15.476 23.564 14.569 QT
23.564 13.929 23.072 13.476 QT
22.579 13.023 21.892 12.851 QT
20.548 12.585 L
19.876 12.444 19.329 12.14 QT
18.783 11.835 18.431 11.335 QT
18.079 10.835 18.079 10.163 QT
18.079 9.288 18.54 8.726 QT
19.001 8.163 19.743 7.913 QT
20.486 7.663 21.345 7.663 QT
22.376 7.663 23.126 8.21 QT
23.704 7.71 L
23.704 7.663 23.798 7.663 QT
23.954 7.663 L
24.017 7.663 24.064 7.718 QT
24.111 7.773 24.111 7.835 QT
24.111 10.444 L
24.111 10.632 23.954 10.632 QT
23.704 10.632 L
23.533 10.632 23.533 10.444 QT
23.533 9.398 22.954 8.765 QT
22.376 8.132 21.329 8.132 QT
20.423 8.132 19.767 8.468 QT
19.111 8.804 19.111 9.616 QT
19.111 10.163 19.579 10.523 QT
20.048 10.882 20.689 11.038 QT
22.048 11.288 L
22.736 11.444 23.322 11.819 QT
23.908 12.194 24.259 12.757 QT
24.611 13.319 24.611 14.038 QT
24.611 14.757 24.361 15.288 QT
24.111 15.819 23.665 16.171 QT
23.22 16.523 22.611 16.687 QT
22.001 16.851 21.345 16.851 QT
20.095 16.851 19.204 16.023 QT
18.47 16.804 L
18.47 16.851 18.361 16.851 QT
18.251 16.851 L
18.079 16.851 18.079 16.694 QT
cp
f
GR
GS
0.149 GC
2 setlinecap
1 LJ
0.5 LW
N
73 362 M
73 31.5 L
S
GR
GS
0.149 GC
2 setlinecap
1 LJ
0.5 LW
N
507 362 M
507 31.5 L
S
GR
GS
0.149 GC
2 setlinecap
1 LJ
0.5 LW
N
73 236.688 M
77.34 236.688 L
S
GR
GS
0.149 GC
2 setlinecap
1 LJ
0.5 LW
N
73 78.976 M
77.34 78.976 L
S
GR
GS
0.149 GC
2 setlinecap
1 LJ
0.5 LW
N
507 236.688 M
502.66 236.688 L
S
GR
GS
0.149 GC
2 setlinecap
1 LJ
0.5 LW
N
507 78.976 M
502.66 78.976 L
S
GR
GS
0.149 GC
2 setlinecap
1 LJ
0.5 LW
N
73 346.924 M
75.17 346.924 L
S
GR
GS
0.149 GC
2 setlinecap
1 LJ
0.5 LW
N
73 319.152 M
75.17 319.152 L
S
GR
GS
0.149 GC
2 setlinecap
1 LJ
0.5 LW
N
73 299.448 M
75.17 299.448 L
S
GR
GS
0.149 GC
2 setlinecap
1 LJ
0.5 LW
N
73 284.164 M
75.17 284.164 L
S
GR
GS
0.149 GC
2 setlinecap
1 LJ
0.5 LW
N
73 271.676 M
75.17 271.676 L
S
GR
GS
0.149 GC
2 setlinecap
1 LJ
0.5 LW
N
73 261.118 M
75.17 261.118 L
S
GR
GS
0.149 GC
2 setlinecap
1 LJ
0.5 LW
N
73 251.972 M
75.17 251.972 L
S
GR
GS
0.149 GC
2 setlinecap
1 LJ
0.5 LW
N
73 243.904 M
75.17 243.904 L
S
GR
GS
0.149 GC
2 setlinecap
1 LJ
0.5 LW
N
73 236.688 M
75.17 236.688 L
S
GR
GS
0.149 GC
2 setlinecap
1 LJ
0.5 LW
N
73 189.212 M
75.17 189.212 L
S
GR
GS
0.149 GC
2 setlinecap
1 LJ
0.5 LW
N
73 161.44 M
75.17 161.44 L
S
GR
GS
0.149 GC
2 setlinecap
1 LJ
0.5 LW
N
73 141.736 M
75.17 141.736 L
S
GR
GS
0.149 GC
2 setlinecap
1 LJ
0.5 LW
N
73 126.452 M
75.17 126.452 L
S
GR
GS
0.149 GC
2 setlinecap
1 LJ
0.5 LW
N
73 113.964 M
75.17 113.964 L
S
GR
GS
0.149 GC
2 setlinecap
1 LJ
0.5 LW
N
73 103.406 M
75.17 103.406 L
S
GR
GS
0.149 GC
2 setlinecap
1 LJ
0.5 LW
N
73 94.26 M
75.17 94.26 L
S
GR
GS
0.149 GC
2 setlinecap
1 LJ
0.5 LW
N
73 86.193 M
75.17 86.193 L
S
GR
GS
0.149 GC
2 setlinecap
1 LJ
0.5 LW
N
73 78.976 M
75.17 78.976 L
S
GR
GS
0.149 GC
2 setlinecap
1 LJ
0.5 LW
N
507 346.924 M
504.83 346.924 L
S
GR
GS
0.149 GC
2 setlinecap
1 LJ
0.5 LW
N
507 319.152 M
504.83 319.152 L
S
GR
GS
0.149 GC
2 setlinecap
1 LJ
0.5 LW
N
507 299.448 M
504.83 299.448 L
S
GR
GS
0.149 GC
2 setlinecap
1 LJ
0.5 LW
N
507 284.164 M
504.83 284.164 L
S
GR
GS
0.149 GC
2 setlinecap
1 LJ
0.5 LW
N
507 271.676 M
504.83 271.676 L
S
GR
GS
0.149 GC
2 setlinecap
1 LJ
0.5 LW
N
507 261.118 M
504.83 261.118 L
S
GR
GS
0.149 GC
2 setlinecap
1 LJ
0.5 LW
N
507 251.972 M
504.83 251.972 L
S
GR
GS
0.149 GC
2 setlinecap
1 LJ
0.5 LW
N
507 243.904 M
504.83 243.904 L
S
GR
GS
0.149 GC
2 setlinecap
1 LJ
0.5 LW
N
507 236.688 M
504.83 236.688 L
S
GR
GS
0.149 GC
2 setlinecap
1 LJ
0.5 LW
N
507 189.212 M
504.83 189.212 L
S
GR
GS
0.149 GC
2 setlinecap
1 LJ
0.5 LW
N
507 161.44 M
504.83 161.44 L
S
GR
GS
0.149 GC
2 setlinecap
1 LJ
0.5 LW
N
507 141.736 M
504.83 141.736 L
S
GR
GS
0.149 GC
2 setlinecap
1 LJ
0.5 LW
N
507 126.452 M
504.83 126.452 L
S
GR
GS
0.149 GC
2 setlinecap
1 LJ
0.5 LW
N
507 113.964 M
504.83 113.964 L
S
GR
GS
0.149 GC
2 setlinecap
1 LJ
0.5 LW
N
507 103.406 M
504.83 103.406 L
S
GR
GS
0.149 GC
2 setlinecap
1 LJ
0.5 LW
N
507 94.26 M
504.83 94.26 L
S
GR
GS
0.149 GC
2 setlinecap
1 LJ
0.5 LW
N
507 86.193 M
504.83 86.193 L
S
GR
GS
0.149 GC
2 setlinecap
1 LJ
0.5 LW
N
507 78.976 M
504.83 78.976 L
S
GR
GS
[1 0 0 1 37 247] CT
0.149 GC
/Helvetica-Bold 18 F
GS
[1 0 0 1 0 0] CT
0 0 moveto 
1 -1 scale
(10) t 
GR
GR
GS
[1 0 0 1 58 238] CT
0.149 GC
/Helvetica-Bold 14.4 F
GS
[1 0 0 1 0 0] CT
0 0 moveto 
1 -1 scale
(2) t 
GR
GR
GS
[1 0 0 1 37 89] CT
0.149 GC
/Helvetica-Bold 18 F
GS
[1 0 0 1 0 0] CT
0 0 moveto 
1 -1 scale
(10) t 
GR
GR
GS
[1 0 0 1 58 80] CT
0.149 GC
/Helvetica-Bold 14.4 F
GS
[1 0 0 1 0 0] CT
0 0 moveto 
1 -1 scale
(3) t 
GR
GR
GS
[0 -1 1 0 35.4 196.74985] CT
0.149 GC
N
-31.88 -7.128 M
-31.88 -7.831 L
-30.864 -7.831 -29.919 -7.941 QT
-28.974 -8.05 -28.974 -8.472 QT
-28.974 -19.456 L
-28.974 -19.878 -29.216 -19.98 QT
-29.458 -20.081 -29.989 -20.081 QT
-30.833 -20.081 L
-32.474 -20.081 -33.177 -19.362 QT
-33.536 -19.003 -33.693 -18.206 QT
-33.849 -17.409 -33.958 -16.206 QT
-34.536 -16.206 L
-34.146 -20.784 L
-21.927 -20.784 L
-21.552 -16.206 L
-22.146 -16.206 L
-22.255 -17.503 -22.396 -18.261 QT
-22.536 -19.019 -22.911 -19.362 QT
-23.614 -20.081 -25.255 -20.081 QT
-26.099 -20.081 L
-26.458 -20.081 -26.653 -20.058 QT
-26.849 -20.034 -26.982 -19.894 QT
-27.114 -19.753 -27.114 -19.456 QT
-27.114 -8.472 L
-27.114 -8.05 -26.161 -7.941 QT
-25.208 -7.831 -24.224 -7.831 QT
-24.224 -7.128 L
-31.88 -7.128 L
cp
f
GR
GS
[0 -1 1 0 35.4 196.74985] CT
0.149 GC
N
-20.346 -7.128 M
-20.346 -7.831 L
-19.658 -7.831 -19.221 -7.941 QT
-18.783 -8.05 -18.783 -8.472 QT
-18.783 -13.925 L
-18.783 -14.691 -19.08 -14.87 QT
-19.377 -15.05 -20.252 -15.05 QT
-20.252 -15.753 L
-17.377 -15.972 L
-17.377 -8.472 L
-17.377 -8.05 -16.994 -7.941 QT
-16.611 -7.831 -15.971 -7.831 QT
-15.971 -7.128 L
-20.346 -7.128 L
cp
-19.486 -19.409 M
-19.486 -19.847 -19.158 -20.175 QT
-18.83 -20.503 -18.393 -20.503 QT
-18.111 -20.503 -17.846 -20.362 QT
-17.58 -20.222 -17.439 -19.956 QT
-17.299 -19.691 -17.299 -19.409 QT
-17.299 -18.972 -17.627 -18.644 QT
-17.955 -18.316 -18.393 -18.316 QT
-18.83 -18.316 -19.158 -18.644 QT
-19.486 -18.972 -19.486 -19.409 QT
cp
f
GR
GS
[0 -1 1 0 35.4 196.74985] CT
0.149 GC
N
-14.861 -7.128 M
-14.861 -7.831 L
-14.174 -7.831 -13.736 -7.941 QT
-13.299 -8.05 -13.299 -8.472 QT
-13.299 -13.925 L
-13.299 -14.456 -13.455 -14.698 QT
-13.611 -14.941 -13.916 -14.995 QT
-14.221 -15.05 -14.861 -15.05 QT
-14.861 -15.753 L
-11.955 -15.972 L
-11.955 -14.019 L
-11.564 -14.878 -10.775 -15.425 QT
-9.986 -15.972 -9.064 -15.972 QT
-6.752 -15.972 -6.346 -14.097 QT
-5.955 -14.925 -5.182 -15.448 QT
-4.408 -15.972 -3.486 -15.972 QT
-2.58 -15.972 -1.963 -15.675 QT
-1.346 -15.378 -1.033 -14.777 QT
-0.721 -14.175 -0.721 -13.269 QT
-0.721 -8.472 L
-0.721 -8.05 -0.275 -7.941 QT
0.17 -7.831 0.842 -7.831 QT
0.842 -7.128 L
-3.736 -7.128 L
-3.736 -7.831 L
-3.049 -7.831 -2.611 -7.941 QT
-2.174 -8.05 -2.174 -8.472 QT
-2.174 -13.206 L
-2.174 -14.222 -2.455 -14.839 QT
-2.736 -15.456 -3.611 -15.456 QT
-4.768 -15.456 -5.518 -14.527 QT
-6.268 -13.597 -6.268 -12.409 QT
-6.268 -8.472 L
-6.268 -8.05 -5.83 -7.941 QT
-5.393 -7.831 -4.705 -7.831 QT
-4.705 -7.128 L
-9.299 -7.128 L
-9.299 -7.831 L
-8.611 -7.831 -8.174 -7.941 QT
-7.736 -8.05 -7.736 -8.472 QT
-7.736 -13.206 L
-7.736 -14.191 -8.018 -14.823 QT
-8.299 -15.456 -9.174 -15.456 QT
-10.33 -15.456 -11.08 -14.527 QT
-11.83 -13.597 -11.83 -12.409 QT
-11.83 -8.472 L
-11.83 -8.05 -11.393 -7.941 QT
-10.955 -7.831 -10.283 -7.831 QT
-10.283 -7.128 L
-14.861 -7.128 L
cp
f
GR
GS
[0 -1 1 0 35.4 196.74985] CT
0.149 GC
N
6.029 -6.909 M
4.811 -6.909 3.787 -7.55 QT
2.764 -8.191 2.186 -9.253 QT
1.608 -10.316 1.608 -11.519 QT
1.608 -12.691 2.139 -13.745 QT
2.67 -14.8 3.623 -15.448 QT
4.576 -16.097 5.748 -16.097 QT
6.654 -16.097 7.334 -15.784 QT
8.014 -15.472 8.459 -14.925 QT
8.904 -14.378 9.123 -13.636 QT
9.342 -12.894 9.342 -12.019 QT
9.342 -11.753 9.139 -11.753 QT
3.358 -11.753 L
3.358 -11.534 L
3.358 -9.878 4.022 -8.683 QT
4.686 -7.487 6.201 -7.487 QT
6.811 -7.487 7.334 -7.761 QT
7.858 -8.034 8.248 -8.527 QT
8.639 -9.019 8.764 -9.566 QT
8.795 -9.644 8.85 -9.698 QT
8.904 -9.753 8.967 -9.753 QT
9.139 -9.753 L
9.342 -9.753 9.342 -9.487 QT
9.061 -8.362 8.123 -7.636 QT
7.186 -6.909 6.029 -6.909 QT
cp
3.373 -12.253 M
7.936 -12.253 L
7.936 -13.003 7.725 -13.769 QT
7.514 -14.534 7.022 -15.05 QT
6.529 -15.566 5.748 -15.566 QT
4.608 -15.566 3.99 -14.503 QT
3.373 -13.441 3.373 -12.253 QT
cp
f
GR
GS
[0 -1 1 0 35.4 196.74985] CT
0.149 GC
N
18.804 -2.128 M
18.804 -22.128 L
21.539 -22.128 L
21.539 -21.331 L
19.617 -21.331 L
19.617 -2.925 L
21.539 -2.925 L
21.539 -2.128 L
18.804 -2.128 L
cp
f
GR
GS
[0 -1 1 0 35.4 196.74985] CT
0.149 GC
N
22.617 -7.066 M
22.617 -10.331 L
22.617 -10.487 22.789 -10.487 QT
23.023 -10.487 L
23.148 -10.487 23.179 -10.331 QT
23.742 -7.425 25.883 -7.425 QT
26.836 -7.425 27.468 -7.855 QT
28.101 -8.284 28.101 -9.191 QT
28.101 -9.831 27.609 -10.284 QT
27.117 -10.737 26.429 -10.909 QT
25.086 -11.175 L
24.414 -11.316 23.867 -11.62 QT
23.32 -11.925 22.968 -12.425 QT
22.617 -12.925 22.617 -13.597 QT
22.617 -14.472 23.078 -15.034 QT
23.539 -15.597 24.281 -15.847 QT
25.023 -16.097 25.883 -16.097 QT
26.914 -16.097 27.664 -15.55 QT
28.242 -16.05 L
28.242 -16.097 28.336 -16.097 QT
28.492 -16.097 L
28.554 -16.097 28.601 -16.042 QT
28.648 -15.987 28.648 -15.925 QT
28.648 -13.316 L
28.648 -13.128 28.492 -13.128 QT
28.242 -13.128 L
28.07 -13.128 28.07 -13.316 QT
28.07 -14.362 27.492 -14.995 QT
26.914 -15.628 25.867 -15.628 QT
24.961 -15.628 24.304 -15.292 QT
23.648 -14.956 23.648 -14.144 QT
23.648 -13.597 24.117 -13.237 QT
24.586 -12.878 25.226 -12.722 QT
26.586 -12.472 L
27.273 -12.316 27.859 -11.941 QT
28.445 -11.566 28.797 -11.003 QT
29.148 -10.441 29.148 -9.722 QT
29.148 -9.003 28.898 -8.472 QT
28.648 -7.941 28.203 -7.589 QT
27.758 -7.237 27.148 -7.073 QT
26.539 -6.909 25.883 -6.909 QT
24.633 -6.909 23.742 -7.737 QT
23.008 -6.956 L
23.008 -6.909 22.898 -6.909 QT
22.789 -6.909 L
22.617 -6.909 22.617 -7.066 QT
cp
f
GR
GS
[0 -1 1 0 35.4 196.74985] CT
0.149 GC
N
30.193 -2.128 M
30.193 -2.925 L
32.146 -2.925 L
32.146 -21.331 L
30.193 -21.331 L
30.193 -22.128 L
32.943 -22.128 L
32.943 -2.128 L
30.193 -2.128 L
cp
f
GR
GS
0 0 1 RC
1 LJ
2 LW
N
73 61.217 M
138.324 97.927 L
203.647 135.301 L
241.859 148.857 L
307.182 187.554 L
334.294 202.305 L
372.506 222.176 L
410.718 238.198 L
437.829 252.955 L
458.859 254.572 L
476.041 258.103 L
S
GR
GS
[1 0 0 1 73 61.21686] CT
0 0 1 RC
10.0 ML
2 LW
N
-5 0 M
0 6.65 L
5 0 L
0 -6.65 L
cp
S
GR
GS
[1 0 0 1 138.32352 97.92653] CT
0 0 1 RC
10.0 ML
2 LW
N
-5 0 M
0 6.65 L
5 0 L
0 -6.65 L
cp
S
GR
GS
[1 0 0 1 203.64702 135.30125] CT
0 0 1 RC
10.0 ML
2 LW
N
-5 0 M
0 6.65 L
5 0 L
0 -6.65 L
cp
S
GR
GS
[1 0 0 1 241.85883 148.85735] CT
0 0 1 RC
10.0 ML
2 LW
N
-5 0 M
0 6.65 L
5 0 L
0 -6.65 L
cp
S
GR
GS
[1 0 0 1 307.18231 187.55409] CT
0 0 1 RC
10.0 ML
2 LW
N
-5 0 M
0 6.65 L
5 0 L
0 -6.65 L
cp
S
GR
GS
[1 0 0 1 334.29404 202.30519] CT
0 0 1 RC
10.0 ML
2 LW
N
-5 0 M
0 6.65 L
5 0 L
0 -6.65 L
cp
S
GR
GS
[1 0 0 1 372.50583 222.17557] CT
0 0 1 RC
10.0 ML
2 LW
N
-5 0 M
0 6.65 L
5 0 L
0 -6.65 L
cp
S
GR
GS
[1 0 0 1 410.71765 238.19766] CT
0 0 1 RC
10.0 ML
2 LW
N
-5 0 M
0 6.65 L
5 0 L
0 -6.65 L
cp
S
GR
GS
[1 0 0 1 437.82935 252.9549] CT
0 0 1 RC
10.0 ML
2 LW
N
-5 0 M
0 6.65 L
5 0 L
0 -6.65 L
cp
S
GR
GS
[1 0 0 1 458.85883 254.57196] CT
0 0 1 RC
10.0 ML
2 LW
N
-5 0 M
0 6.65 L
5 0 L
0 -6.65 L
cp
S
GR
GS
[1 0 0 1 476.04114 258.103] CT
0 0 1 RC
10.0 ML
2 LW
N
-5 0 M
0 6.65 L
5 0 L
0 -6.65 L
cp
S
GR
GS
0.2 0.6 0 RC
[8 8] 0 setdash
2 LJ
2 LW
N
73 69.076 M
138.324 116.552 L
203.647 164.029 L
241.859 191.8 L
307.182 239.276 L
334.294 258.981 L
372.506 286.752 L
410.718 314.524 L
437.829 334.228 L
458.859 349.512 L
476.041 362 L
S
GR
GS
0 1 1 RC
1 LJ
2 LW
N
73 77.956 M
138.324 101.192 L
203.647 141.993 L
241.859 171.058 L
307.182 197.58 L
334.294 216.133 L
372.506 239.992 L
410.718 263.832 L
437.829 280.848 L
458.859 308.516 L
476.041 296.171 L
S
GR
GS
[1 0 0 1 73 77.95625] CT
0 1 1 RC
10.0 ML
2 LW
N
0 -5 M
0 5 L
-5 0 M
5 0 L
-3.536 -3.536 M
3.536 3.536 L
-3.536 3.536 M
3.536 -3.536 L
S
GR
GS
[1 0 0 1 138.32352 101.1916] CT
0 1 1 RC
10.0 ML
2 LW
N
0 -5 M
0 5 L
-5 0 M
5 0 L
-3.536 -3.536 M
3.536 3.536 L
-3.536 3.536 M
3.536 -3.536 L
S
GR
GS
[1 0 0 1 203.64702 141.99326] CT
0 1 1 RC
10.0 ML
2 LW
N
0 -5 M
0 5 L
-5 0 M
5 0 L
-3.536 -3.536 M
3.536 3.536 L
-3.536 3.536 M
3.536 -3.536 L
S
GR
GS
[1 0 0 1 241.85883 171.05756] CT
0 1 1 RC
10.0 ML
2 LW
N
0 -5 M
0 5 L
-5 0 M
5 0 L
-3.536 -3.536 M
3.536 3.536 L
-3.536 3.536 M
3.536 -3.536 L
S
GR
GS
[1 0 0 1 307.18231 197.57962] CT
0 1 1 RC
10.0 ML
2 LW
N
0 -5 M
0 5 L
-5 0 M
5 0 L
-3.536 -3.536 M
3.536 3.536 L
-3.536 3.536 M
3.536 -3.536 L
S
GR
GS
[1 0 0 1 334.29404 216.13278] CT
0 1 1 RC
10.0 ML
2 LW
N
0 -5 M
0 5 L
-5 0 M
5 0 L
-3.536 -3.536 M
3.536 3.536 L
-3.536 3.536 M
3.536 -3.536 L
S
GR
GS
[1 0 0 1 372.50583 239.99248] CT
0 1 1 RC
10.0 ML
2 LW
N
0 -5 M
0 5 L
-5 0 M
5 0 L
-3.536 -3.536 M
3.536 3.536 L
-3.536 3.536 M
3.536 -3.536 L
S
GR
GS
[1 0 0 1 410.71765 263.83243] CT
0 1 1 RC
10.0 ML
2 LW
N
0 -5 M
0 5 L
-5 0 M
5 0 L
-3.536 -3.536 M
3.536 3.536 L
-3.536 3.536 M
3.536 -3.536 L
S
GR
GS
[1 0 0 1 437.82935 280.8483] CT
0 1 1 RC
10.0 ML
2 LW
N
0 -5 M
0 5 L
-5 0 M
5 0 L
-3.536 -3.536 M
3.536 3.536 L
-3.536 3.536 M
3.536 -3.536 L
S
GR
GS
[1 0 0 1 458.85883 308.51566] CT
0 1 1 RC
10.0 ML
2 LW
N
0 -5 M
0 5 L
-5 0 M
5 0 L
-3.536 -3.536 M
3.536 3.536 L
-3.536 3.536 M
3.536 -3.536 L
S
GR
GS
[1 0 0 1 476.04114 296.17133] CT
0 1 1 RC
10.0 ML
2 LW
N
0 -5 M
0 5 L
-5 0 M
5 0 L
-3.536 -3.536 M
3.536 3.536 L
-3.536 3.536 M
3.536 -3.536 L
S
GR
GS
[1 0 0 1 380.9761 52.33667] CT
N
0.641 4.32 M
0.641 3.679 L
2.484 3.679 2.484 2.617 QT
2.484 -6.774 L
2.484 -7.336 0.641 -7.336 QT
0.641 -7.977 L
4.031 -7.977 L
4.25 -7.977 4.328 -7.774 QT
8.25 2.414 L
12.172 -7.774 L
12.234 -7.977 12.453 -7.977 QT
15.859 -7.977 L
15.859 -7.336 L
14 -7.336 14 -6.774 QT
14 3.117 L
14 3.679 15.859 3.679 QT
15.859 4.32 L
10.625 4.32 L
10.625 3.679 L
12.469 3.679 12.469 3.117 QT
12.469 -7.368 L
8.047 4.117 L
7.969 4.32 7.75 4.32 QT
7.516 4.32 7.438 4.117 QT
3.063 -7.227 L
3.063 2.617 L
3.063 3.679 4.906 3.679 QT
4.906 4.32 L
0.641 4.32 L
cp
f
GR
GS
[1 0 0 1 380.9761 52.33667] CT
N
18.906 0.257 M
18.906 -6.774 L
18.906 -7.336 17.047 -7.336 QT
17.047 -7.977 L
22.438 -7.977 L
22.438 -7.336 L
20.594 -7.336 20.594 -6.774 QT
20.594 0.179 L
20.594 1.179 20.867 2.07 QT
21.141 2.961 21.797 3.523 QT
22.453 4.086 23.5 4.086 QT
24.531 4.086 25.313 3.546 QT
26.094 3.007 26.516 2.109 QT
26.938 1.211 26.938 0.179 QT
26.938 -6.274 L
26.938 -7.336 25.094 -7.336 QT
25.094 -7.977 L
29.422 -7.977 L
29.422 -7.336 L
27.578 -7.336 27.578 -6.274 QT
27.578 0.257 L
27.578 1.086 27.281 1.882 QT
26.984 2.679 26.43 3.328 QT
25.875 3.976 25.117 4.343 QT
24.359 4.711 23.5 4.711 QT
22.313 4.711 21.242 4.117 QT
20.172 3.523 19.539 2.492 QT
18.906 1.461 18.906 0.257 QT
cp
f
GR
GS
[1 0 0 1 380.9761 52.33667] CT
N
30.641 4.32 M
30.641 3.679 L
32.484 3.679 32.484 2.617 QT
32.484 -6.774 L
32.484 -7.336 30.641 -7.336 QT
30.641 -7.977 L
34.031 -7.977 L
34.25 -7.977 34.328 -7.774 QT
38.25 2.414 L
42.172 -7.774 L
42.234 -7.977 42.453 -7.977 QT
45.859 -7.977 L
45.859 -7.336 L
44 -7.336 44 -6.774 QT
44 3.117 L
44 3.679 45.859 3.679 QT
45.859 4.32 L
40.625 4.32 L
40.625 3.679 L
42.469 3.679 42.469 3.117 QT
42.469 -7.368 L
38.047 4.117 L
37.969 4.32 37.75 4.32 QT
37.516 4.32 37.438 4.117 QT
33.063 -7.227 L
33.063 2.617 L
33.063 3.679 34.906 3.679 QT
34.906 4.32 L
30.641 4.32 L
cp
f
GR
GS
[1 0 0 1 380.9761 52.33667] CT
N
47.094 4.32 M
47.094 3.679 L
48.953 3.679 48.953 3.117 QT
48.953 -6.774 L
48.953 -7.336 47.094 -7.336 QT
47.094 -7.977 L
53.5 -7.977 L
54.484 -7.977 55.469 -7.571 QT
56.453 -7.164 57.094 -6.391 QT
57.734 -5.618 57.734 -4.586 QT
57.734 -3.586 57.094 -2.836 QT
56.453 -2.086 55.477 -1.688 QT
54.5 -1.289 53.5 -1.289 QT
50.625 -1.289 L
50.625 3.117 L
50.625 3.679 52.484 3.679 QT
52.484 4.32 L
47.094 4.32 L
cp
50.563 -1.836 M
53.016 -1.836 L
54 -1.836 54.617 -2.118 QT
55.234 -2.399 55.524 -3 QT
55.813 -3.602 55.813 -4.586 QT
55.813 -6.055 55.164 -6.696 QT
54.516 -7.336 53.016 -7.336 QT
51.484 -7.336 L
51.156 -7.336 50.977 -7.313 QT
50.797 -7.289 50.68 -7.164 QT
50.563 -7.039 50.563 -6.774 QT
50.563 -1.836 L
cp
f
GR
GS
[1 0 0 1 380.9761 52.33667] CT
N
59.766 4.57 M
59.766 0.367 L
59.766 0.226 59.922 0.226 QT
60.141 0.226 L
60.188 0.226 60.235 0.273 QT
60.281 0.32 60.281 0.367 QT
60.281 2.132 61.375 3.109 QT
62.469 4.086 64.25 4.086 QT
64.875 4.086 65.399 3.726 QT
65.922 3.367 66.219 2.781 QT
66.516 2.195 66.516 1.57 QT
66.516 1.023 66.297 0.507 QT
66.078 -0.008 65.664 -0.383 QT
65.25 -0.758 64.735 -0.883 QT
62.391 -1.461 L
61.235 -1.758 60.5 -2.711 QT
59.766 -3.664 59.766 -4.852 QT
59.766 -5.789 60.235 -6.61 QT
60.703 -7.43 61.508 -7.899 QT
62.313 -8.368 63.25 -8.368 QT
65.047 -8.368 66.11 -7.149 QT
66.86 -8.321 L
66.906 -8.368 66.985 -8.368 QT
67.094 -8.368 L
67.156 -8.368 67.203 -8.329 QT
67.25 -8.289 67.25 -8.227 QT
67.25 -4.055 L
67.25 -3.883 67.094 -3.883 QT
66.891 -3.883 L
66.719 -3.883 66.719 -4.055 QT
66.719 -4.508 66.57 -5.055 QT
66.422 -5.602 66.149 -6.102 QT
65.875 -6.602 65.547 -6.914 QT
64.688 -7.789 63.25 -7.789 QT
62.641 -7.789 62.117 -7.477 QT
61.594 -7.164 61.289 -6.633 QT
60.985 -6.102 60.985 -5.508 QT
60.985 -4.727 61.461 -4.102 QT
61.938 -3.477 62.719 -3.274 QT
65.047 -2.696 L
65.625 -2.555 66.141 -2.196 QT
66.656 -1.836 67 -1.352 QT
67.344 -0.868 67.539 -0.274 QT
67.735 0.32 67.735 0.961 QT
67.735 1.929 67.289 2.796 QT
66.844 3.664 66.024 4.187 QT
65.203 4.711 64.25 4.711 QT
63.641 4.711 63.016 4.578 QT
62.391 4.445 61.867 4.179 QT
61.344 3.914 60.906 3.476 QT
60.156 4.664 L
60.11 4.711 60.031 4.711 QT
59.922 4.711 L
59.766 4.711 59.766 4.57 QT
cp
f
GR
GS
0 0 1 RC
1 LJ
2 LW
N
347.997 52.337 M
377.978 52.337 L
S
GR
GS
[1 0 0 1 362.98773 52.33668] CT
0 0 1 RC
10.0 ML
2 LW
N
-5 0 M
0 6.65 L
5 0 L
0 -6.65 L
cp
S
GR
GS
[1 0 0 1 380.9761 74.5] CT
N
0.469 4.32 M
0.469 3.679 L
2.406 3.679 2.406 3.117 QT
2.406 -6.774 L
2.406 -7.336 0.469 -7.336 QT
0.469 -7.977 L
6.031 -7.977 L
6.031 -7.336 L
4.094 -7.336 4.094 -6.774 QT
4.094 3.117 L
4.094 3.679 6.031 3.679 QT
6.031 4.32 L
0.469 4.32 L
cp
f
GR
GS
[1 0 0 1 380.9761 74.5] CT
N
10.891 4.523 M
9.828 4.523 8.953 3.945 QT
8.078 3.367 7.586 2.429 QT
7.094 1.492 7.094 0.429 QT
7.094 -0.649 7.625 -1.586 QT
8.156 -2.524 9.07 -3.079 QT
9.984 -3.633 11.094 -3.633 QT
11.75 -3.633 12.336 -3.36 QT
12.922 -3.086 13.359 -2.586 QT
13.359 -6.336 L
13.359 -6.821 13.211 -7.032 QT
13.063 -7.243 12.797 -7.289 QT
12.531 -7.336 11.953 -7.336 QT
11.953 -7.977 L
14.625 -8.164 L
14.625 2.679 L
14.625 3.164 14.766 3.375 QT
14.906 3.586 15.18 3.632 QT
15.453 3.679 16.016 3.679 QT
16.016 4.32 L
13.297 4.523 L
13.297 3.382 L
12.844 3.929 12.195 4.226 QT
11.547 4.523 10.891 4.523 QT
cp
9.063 2.757 M
9.359 3.351 9.875 3.703 QT
10.391 4.054 11 4.054 QT
11.75 4.054 12.375 3.617 QT
13 3.179 13.297 2.507 QT
13.297 -1.821 L
13.094 -2.211 12.773 -2.524 QT
12.453 -2.836 12.055 -3 QT
11.656 -3.164 11.203 -3.164 QT
10.266 -3.164 9.695 -2.633 QT
9.125 -2.102 8.891 -1.274 QT
8.656 -0.446 8.656 0.445 QT
8.656 1.179 8.734 1.711 QT
8.813 2.242 9.063 2.757 QT
cp
f
GR
GS
[1 0 0 1 380.9761 74.5] CT
N
20.984 4.523 M
19.891 4.523 18.969 3.945 QT
18.047 3.367 17.523 2.406 QT
17 1.445 17 0.367 QT
17 -0.68 17.477 -1.633 QT
17.953 -2.586 18.813 -3.164 QT
19.672 -3.743 20.734 -3.743 QT
21.547 -3.743 22.164 -3.469 QT
22.781 -3.196 23.172 -2.704 QT
23.563 -2.211 23.766 -1.539 QT
23.969 -0.868 23.969 -0.071 QT
23.969 0.164 23.781 0.164 QT
18.578 0.164 L
18.578 0.351 L
18.578 1.851 19.18 2.921 QT
19.781 3.992 21.141 3.992 QT
21.688 3.992 22.164 3.75 QT
22.641 3.507 22.984 3.062 QT
23.328 2.617 23.453 2.117 QT
23.469 2.054 23.516 2.007 QT
23.563 1.961 23.625 1.961 QT
23.781 1.961 L
23.969 1.961 23.969 2.195 QT
23.719 3.211 22.875 3.867 QT
22.031 4.523 20.984 4.523 QT
cp
18.594 -0.289 M
22.703 -0.289 L
22.703 -0.961 22.508 -1.657 QT
22.313 -2.352 21.875 -2.813 QT
21.438 -3.274 20.734 -3.274 QT
19.703 -3.274 19.148 -2.321 QT
18.594 -1.368 18.594 -0.289 QT
cp
f
GR
GS
[1 0 0 1 380.9761 74.5] CT
N
25.219 2.554 M
25.219 1.476 26.063 0.804 QT
26.906 0.132 28.086 -0.141 QT
29.266 -0.414 30.344 -0.414 QT
30.344 -1.149 L
30.344 -1.68 30.109 -2.164 QT
29.875 -2.649 29.445 -2.961 QT
29.016 -3.274 28.5 -3.274 QT
27.297 -3.274 26.688 -2.743 QT
27.016 -2.743 27.242 -2.485 QT
27.469 -2.227 27.469 -1.883 QT
27.469 -1.524 27.219 -1.266 QT
26.969 -1.008 26.609 -1.008 QT
26.25 -1.008 25.992 -1.266 QT
25.734 -1.524 25.734 -1.883 QT
25.734 -2.821 26.602 -3.282 QT
27.469 -3.743 28.5 -3.743 QT
29.234 -3.743 29.969 -3.43 QT
30.703 -3.118 31.172 -2.539 QT
31.641 -1.961 31.641 -1.196 QT
31.641 2.867 L
31.641 3.211 31.789 3.507 QT
31.938 3.804 32.266 3.804 QT
32.563 3.804 32.703 3.507 QT
32.844 3.211 32.844 2.867 QT
32.844 1.711 L
33.375 1.711 L
33.375 2.867 L
33.375 3.257 33.164 3.625 QT
32.953 3.992 32.602 4.211 QT
32.25 4.429 31.828 4.429 QT
31.297 4.429 30.914 4.015 QT
30.531 3.601 30.5 3.039 QT
30.156 3.726 29.508 4.125 QT
28.859 4.523 28.125 4.523 QT
27.438 4.523 26.773 4.32 QT
26.109 4.117 25.664 3.679 QT
25.219 3.242 25.219 2.554 QT
cp
26.688 2.554 M
26.688 3.179 27.148 3.617 QT
27.609 4.054 28.25 4.054 QT
28.828 4.054 29.305 3.757 QT
29.781 3.461 30.063 2.961 QT
30.344 2.461 30.344 1.914 QT
30.344 0.039 L
29.516 0.039 28.664 0.304 QT
27.813 0.57 27.25 1.14 QT
26.688 1.711 26.688 2.554 QT
cp
f
GR
GS
[1 0 0 1 380.9761 74.5] CT
N
34.047 4.32 M
34.047 3.679 L
34.672 3.679 35.063 3.586 QT
35.453 3.492 35.453 3.117 QT
35.453 -6.336 L
35.453 -6.821 35.313 -7.032 QT
35.172 -7.243 34.898 -7.289 QT
34.625 -7.336 34.047 -7.336 QT
34.047 -7.977 L
36.719 -8.164 L
36.719 3.117 L
36.719 3.492 37.117 3.586 QT
37.516 3.679 38.125 3.679 QT
38.125 4.32 L
34.047 4.32 L
cp
f
GR
GS
[1 0 0 1 380.9761 74.5] CT
N
45.094 4.367 M
45.094 1.429 L
45.094 1.289 45.25 1.289 QT
45.469 1.289 L
45.578 1.289 45.609 1.429 QT
46.125 4.054 48.047 4.054 QT
48.891 4.054 49.469 3.664 QT
50.047 3.273 50.047 2.461 QT
50.047 1.882 49.602 1.476 QT
49.156 1.07 48.531 0.914 QT
47.328 0.679 L
46.719 0.554 46.227 0.281 QT
45.734 0.007 45.414 -0.446 QT
45.094 -0.899 45.094 -1.493 QT
45.094 -2.289 45.516 -2.797 QT
45.938 -3.305 46.602 -3.524 QT
47.266 -3.743 48.047 -3.743 QT
48.969 -3.743 49.656 -3.258 QT
50.172 -3.711 L
50.172 -3.743 50.25 -3.743 QT
50.391 -3.743 L
50.438 -3.743 50.484 -3.696 QT
50.531 -3.649 50.531 -3.602 QT
50.531 -1.243 L
50.531 -1.071 50.391 -1.071 QT
50.172 -1.071 L
50.016 -1.071 50.016 -1.243 QT
50.016 -2.18 49.492 -2.75 QT
48.969 -3.321 48.031 -3.321 QT
47.219 -3.321 46.625 -3.024 QT
46.031 -2.727 46.031 -1.993 QT
46.031 -1.493 46.453 -1.172 QT
46.875 -0.852 47.453 -0.711 QT
48.672 -0.493 L
49.297 -0.352 49.828 -0.016 QT
50.359 0.32 50.672 0.828 QT
50.984 1.336 50.984 1.976 QT
50.984 2.632 50.758 3.109 QT
50.531 3.586 50.133 3.906 QT
49.734 4.226 49.188 4.375 QT
48.641 4.523 48.047 4.523 QT
46.922 4.523 46.125 3.773 QT
45.453 4.476 L
45.453 4.523 45.359 4.523 QT
45.25 4.523 L
45.094 4.523 45.094 4.367 QT
cp
f
GR
GS
[1 0 0 1 380.9761 74.5] CT
N
52.069 7.804 M
52.069 7.179 L
52.678 7.179 53.077 7.078 QT
53.475 6.976 53.475 6.601 QT
53.475 -2.071 L
53.475 -2.555 53.124 -2.68 QT
52.772 -2.805 52.069 -2.805 QT
52.069 -3.446 L
54.725 -3.633 L
54.725 -2.524 L
55.225 -3.071 55.881 -3.352 QT
56.538 -3.633 57.272 -3.633 QT
58.334 -3.633 59.186 -3.055 QT
60.038 -2.477 60.514 -1.547 QT
60.991 -0.618 60.991 0.429 QT
60.991 1.523 60.459 2.461 QT
59.928 3.398 59.014 3.961 QT
58.1 4.523 56.991 4.523 QT
55.694 4.523 54.788 3.461 QT
54.788 6.601 L
54.788 6.976 55.186 7.078 QT
55.584 7.179 56.194 7.179 QT
56.194 7.804 L
52.069 7.804 L
cp
54.788 2.57 M
55.1 3.211 55.663 3.632 QT
56.225 4.054 56.897 4.054 QT
57.522 4.054 57.999 3.718 QT
58.475 3.382 58.803 2.82 QT
59.131 2.257 59.28 1.632 QT
59.428 1.007 59.428 0.429 QT
59.428 -0.289 59.17 -1.125 QT
58.913 -1.961 58.381 -2.539 QT
57.85 -3.118 57.1 -3.118 QT
56.366 -3.118 55.756 -2.743 QT
55.147 -2.368 54.788 -1.727 QT
54.788 2.57 L
cp
f
GR
GS
[1 0 0 1 380.9761 74.5] CT
N
66.584 4.523 M
65.491 4.523 64.569 3.945 QT
63.647 3.367 63.124 2.406 QT
62.6 1.445 62.6 0.367 QT
62.6 -0.68 63.077 -1.633 QT
63.553 -2.586 64.413 -3.164 QT
65.272 -3.743 66.334 -3.743 QT
67.147 -3.743 67.764 -3.469 QT
68.381 -3.196 68.772 -2.704 QT
69.163 -2.211 69.366 -1.539 QT
69.569 -0.868 69.569 -0.071 QT
69.569 0.164 69.381 0.164 QT
64.178 0.164 L
64.178 0.351 L
64.178 1.851 64.78 2.921 QT
65.381 3.992 66.741 3.992 QT
67.288 3.992 67.764 3.75 QT
68.241 3.507 68.584 3.062 QT
68.928 2.617 69.053 2.117 QT
69.069 2.054 69.116 2.007 QT
69.163 1.961 69.225 1.961 QT
69.381 1.961 L
69.569 1.961 69.569 2.195 QT
69.319 3.211 68.475 3.867 QT
67.631 4.523 66.584 4.523 QT
cp
64.194 -0.289 M
68.303 -0.289 L
68.303 -0.961 68.108 -1.657 QT
67.913 -2.352 67.475 -2.813 QT
67.038 -3.274 66.334 -3.274 QT
65.303 -3.274 64.749 -2.321 QT
64.194 -1.368 64.194 -0.289 QT
cp
f
GR
GS
[1 0 0 1 380.9761 74.5] CT
N
74.584 4.523 M
73.491 4.523 72.569 3.945 QT
71.647 3.367 71.124 2.406 QT
70.6 1.445 70.6 0.367 QT
70.6 -0.68 71.077 -1.633 QT
71.553 -2.586 72.413 -3.164 QT
73.272 -3.743 74.334 -3.743 QT
75.147 -3.743 75.764 -3.469 QT
76.381 -3.196 76.772 -2.704 QT
77.163 -2.211 77.366 -1.539 QT
77.569 -0.868 77.569 -0.071 QT
77.569 0.164 77.381 0.164 QT
72.178 0.164 L
72.178 0.351 L
72.178 1.851 72.78 2.921 QT
73.381 3.992 74.741 3.992 QT
75.288 3.992 75.764 3.75 QT
76.241 3.507 76.584 3.062 QT
76.928 2.617 77.053 2.117 QT
77.069 2.054 77.116 2.007 QT
77.163 1.961 77.225 1.961 QT
77.381 1.961 L
77.569 1.961 77.569 2.195 QT
77.319 3.211 76.475 3.867 QT
75.631 4.523 74.584 4.523 QT
cp
72.194 -0.289 M
76.303 -0.289 L
76.303 -0.961 76.108 -1.657 QT
75.913 -2.352 75.475 -2.813 QT
75.038 -3.274 74.334 -3.274 QT
73.303 -3.274 72.749 -2.321 QT
72.194 -1.368 72.194 -0.289 QT
cp
f
GR
GS
[1 0 0 1 380.9761 74.5] CT
N
82.491 4.523 M
81.428 4.523 80.553 3.945 QT
79.678 3.367 79.186 2.429 QT
78.694 1.492 78.694 0.429 QT
78.694 -0.649 79.225 -1.586 QT
79.756 -2.524 80.67 -3.079 QT
81.584 -3.633 82.694 -3.633 QT
83.35 -3.633 83.936 -3.36 QT
84.522 -3.086 84.959 -2.586 QT
84.959 -6.336 L
84.959 -6.821 84.811 -7.032 QT
84.663 -7.243 84.397 -7.289 QT
84.131 -7.336 83.553 -7.336 QT
83.553 -7.977 L
86.225 -8.164 L
86.225 2.679 L
86.225 3.164 86.366 3.375 QT
86.506 3.586 86.78 3.632 QT
87.053 3.679 87.616 3.679 QT
87.616 4.32 L
84.897 4.523 L
84.897 3.382 L
84.444 3.929 83.795 4.226 QT
83.147 4.523 82.491 4.523 QT
cp
80.663 2.757 M
80.959 3.351 81.475 3.703 QT
81.991 4.054 82.6 4.054 QT
83.35 4.054 83.975 3.617 QT
84.6 3.179 84.897 2.507 QT
84.897 -1.821 L
84.694 -2.211 84.374 -2.524 QT
84.053 -2.836 83.655 -3 QT
83.256 -3.164 82.803 -3.164 QT
81.866 -3.164 81.295 -2.633 QT
80.725 -2.102 80.491 -1.274 QT
80.256 -0.446 80.256 0.445 QT
80.256 1.179 80.334 1.711 QT
80.413 2.242 80.663 2.757 QT
cp
f
GR
GS
[1 0 0 1 380.9761 74.5] CT
N
88.303 0.992 M
88.303 -0.133 L
93.069 -0.133 L
93.069 0.992 L
88.303 0.992 L
cp
f
GR
GS
[1 0 0 1 380.9761 74.5] CT
N
96.038 2.179 M
96.038 -1.805 L
96.038 -2.274 95.897 -2.493 QT
95.756 -2.711 95.483 -2.758 QT
95.209 -2.805 94.631 -2.805 QT
94.631 -3.446 L
97.366 -3.633 L
97.366 2.179 L
97.366 2.882 97.467 3.273 QT
97.569 3.664 97.897 3.859 QT
98.225 4.054 98.944 4.054 QT
99.913 4.054 100.483 3.242 QT
101.053 2.429 101.053 1.398 QT
101.053 -1.805 L
101.053 -2.274 100.905 -2.493 QT
100.756 -2.711 100.491 -2.758 QT
100.225 -2.805 99.647 -2.805 QT
99.647 -3.446 L
102.366 -3.633 L
102.366 2.679 L
102.366 3.164 102.506 3.375 QT
102.647 3.586 102.92 3.632 QT
103.194 3.679 103.772 3.679 QT
103.772 4.32 L
101.1 4.523 L
101.1 3.007 L
100.772 3.679 100.17 4.101 QT
99.569 4.523 98.85 4.523 QT
97.569 4.523 96.803 3.976 QT
96.038 3.429 96.038 2.179 QT
cp
f
GR
GS
[1 0 0 1 380.9761 74.5] CT
N
104.569 7.804 M
104.569 7.179 L
105.178 7.179 105.577 7.078 QT
105.975 6.976 105.975 6.601 QT
105.975 -2.071 L
105.975 -2.555 105.624 -2.68 QT
105.272 -2.805 104.569 -2.805 QT
104.569 -3.446 L
107.225 -3.633 L
107.225 -2.524 L
107.725 -3.071 108.381 -3.352 QT
109.038 -3.633 109.772 -3.633 QT
110.835 -3.633 111.686 -3.055 QT
112.538 -2.477 113.014 -1.547 QT
113.491 -0.618 113.491 0.429 QT
113.491 1.523 112.96 2.461 QT
112.428 3.398 111.514 3.961 QT
110.6 4.523 109.491 4.523 QT
108.194 4.523 107.288 3.461 QT
107.288 6.601 L
107.288 6.976 107.686 7.078 QT
108.085 7.179 108.694 7.179 QT
108.694 7.804 L
104.569 7.804 L
cp
107.288 2.57 M
107.6 3.211 108.163 3.632 QT
108.725 4.054 109.397 4.054 QT
110.022 4.054 110.499 3.718 QT
110.975 3.382 111.303 2.82 QT
111.631 2.257 111.78 1.632 QT
111.928 1.007 111.928 0.429 QT
111.928 -0.289 111.67 -1.125 QT
111.413 -1.961 110.881 -2.539 QT
110.35 -3.118 109.6 -3.118 QT
108.866 -3.118 108.256 -2.743 QT
107.647 -2.368 107.288 -1.727 QT
107.288 2.57 L
cp
f
GR
GS
0.2 0.6 0 RC
[8 8] 0 setdash
2 LJ
2 LW
N
347.997 74.5 M
377.978 74.5 L
S
GR
GS
[1 0 0 1 380.9761 96.66332] CT
N
0.547 4.32 M
0.547 3.679 L
2.406 3.679 2.406 3.117 QT
2.406 -6.774 L
2.406 -7.336 0.547 -7.336 QT
0.547 -7.977 L
10.484 -7.977 L
10.984 -3.852 L
10.453 -3.852 L
10.344 -4.993 10.133 -5.649 QT
9.922 -6.305 9.523 -6.672 QT
9.125 -7.039 8.469 -7.188 QT
7.813 -7.336 6.641 -7.336 QT
5 -7.336 L
4.672 -7.336 4.492 -7.313 QT
4.313 -7.289 4.203 -7.164 QT
4.094 -7.039 4.094 -6.774 QT
4.094 -2.133 L
5.359 -2.133 L
6.281 -2.133 6.711 -2.297 QT
7.141 -2.461 7.305 -2.891 QT
7.469 -3.321 7.469 -4.243 QT
7.984 -4.243 L
7.984 0.586 L
7.469 0.586 L
7.469 -0.336 7.305 -0.766 QT
7.141 -1.196 6.711 -1.36 QT
6.281 -1.524 5.359 -1.524 QT
4.094 -1.524 L
4.094 3.117 L
4.094 3.679 6.391 3.679 QT
6.391 4.32 L
0.547 4.32 L
cp
f
GR
GS
[1 0 0 1 380.9761 96.66332] CT
N
12.297 4.32 M
12.297 3.679 L
12.922 3.679 13.313 3.586 QT
13.703 3.492 13.703 3.117 QT
13.703 -1.805 L
13.703 -2.493 13.438 -2.649 QT
13.172 -2.805 12.391 -2.805 QT
12.391 -3.446 L
14.969 -3.633 L
14.969 3.117 L
14.969 3.492 15.313 3.586 QT
15.656 3.679 16.234 3.679 QT
16.234 4.32 L
12.297 4.32 L
cp
13.063 -6.727 M
13.063 -7.118 13.367 -7.422 QT
13.672 -7.727 14.047 -7.727 QT
14.313 -7.727 14.547 -7.594 QT
14.781 -7.461 14.914 -7.219 QT
15.047 -6.977 15.047 -6.727 QT
15.047 -6.336 14.75 -6.039 QT
14.453 -5.743 14.047 -5.743 QT
13.672 -5.743 13.367 -6.039 QT
13.063 -6.336 13.063 -6.727 QT
cp
f
GR
GS
[1 0 0 1 380.9761 96.66332] CT
N
21.234 4.523 M
20.141 4.523 19.219 3.945 QT
18.297 3.367 17.773 2.406 QT
17.25 1.445 17.25 0.367 QT
17.25 -0.68 17.727 -1.633 QT
18.203 -2.586 19.063 -3.164 QT
19.922 -3.743 20.984 -3.743 QT
21.797 -3.743 22.414 -3.469 QT
23.031 -3.196 23.422 -2.704 QT
23.813 -2.211 24.016 -1.539 QT
24.219 -0.868 24.219 -0.071 QT
24.219 0.164 24.031 0.164 QT
18.828 0.164 L
18.828 0.351 L
18.828 1.851 19.43 2.921 QT
20.031 3.992 21.391 3.992 QT
21.938 3.992 22.414 3.75 QT
22.891 3.507 23.234 3.062 QT
23.578 2.617 23.703 2.117 QT
23.719 2.054 23.766 2.007 QT
23.813 1.961 23.875 1.961 QT
24.031 1.961 L
24.219 1.961 24.219 2.195 QT
23.969 3.211 23.125 3.867 QT
22.281 4.523 21.234 4.523 QT
cp
18.844 -0.289 M
22.953 -0.289 L
22.953 -0.961 22.758 -1.657 QT
22.563 -2.352 22.125 -2.813 QT
21.688 -3.274 20.984 -3.274 QT
19.953 -3.274 19.398 -2.321 QT
18.844 -1.368 18.844 -0.289 QT
cp
f
GR
GS
[1 0 0 1 380.9761 96.66332] CT
N
25.297 4.32 M
25.297 3.679 L
25.922 3.679 26.313 3.586 QT
26.703 3.492 26.703 3.117 QT
26.703 -6.336 L
26.703 -6.821 26.563 -7.032 QT
26.422 -7.243 26.148 -7.289 QT
25.875 -7.336 25.297 -7.336 QT
25.297 -7.977 L
27.969 -8.164 L
27.969 3.117 L
27.969 3.492 28.367 3.586 QT
28.766 3.679 29.375 3.679 QT
29.375 4.32 L
25.297 4.32 L
cp
f
GR
GS
[1 0 0 1 380.9761 96.66332] CT
N
34.141 4.523 M
33.078 4.523 32.203 3.945 QT
31.328 3.367 30.836 2.429 QT
30.344 1.492 30.344 0.429 QT
30.344 -0.649 30.875 -1.586 QT
31.406 -2.524 32.32 -3.079 QT
33.234 -3.633 34.344 -3.633 QT
35 -3.633 35.586 -3.36 QT
36.172 -3.086 36.609 -2.586 QT
36.609 -6.336 L
36.609 -6.821 36.461 -7.032 QT
36.313 -7.243 36.047 -7.289 QT
35.781 -7.336 35.203 -7.336 QT
35.203 -7.977 L
37.875 -8.164 L
37.875 2.679 L
37.875 3.164 38.016 3.375 QT
38.156 3.586 38.43 3.632 QT
38.703 3.679 39.266 3.679 QT
39.266 4.32 L
36.547 4.523 L
36.547 3.382 L
36.094 3.929 35.445 4.226 QT
34.797 4.523 34.141 4.523 QT
cp
32.313 2.757 M
32.609 3.351 33.125 3.703 QT
33.641 4.054 34.25 4.054 QT
35 4.054 35.625 3.617 QT
36.25 3.179 36.547 2.507 QT
36.547 -1.821 L
36.344 -2.211 36.024 -2.524 QT
35.703 -2.836 35.305 -3 QT
34.906 -3.164 34.453 -3.164 QT
33.516 -3.164 32.945 -2.633 QT
32.375 -2.102 32.141 -1.274 QT
31.906 -0.446 31.906 0.445 QT
31.906 1.179 31.984 1.711 QT
32.063 2.242 32.313 2.757 QT
cp
f
GR
GS
[1 0 0 1 380.9761 96.66332] CT
N
46.344 4.367 M
46.344 1.429 L
46.344 1.289 46.5 1.289 QT
46.719 1.289 L
46.828 1.289 46.859 1.429 QT
47.375 4.054 49.297 4.054 QT
50.141 4.054 50.719 3.664 QT
51.297 3.273 51.297 2.461 QT
51.297 1.882 50.852 1.476 QT
50.406 1.07 49.781 0.914 QT
48.578 0.679 L
47.969 0.554 47.477 0.281 QT
46.984 0.007 46.664 -0.446 QT
46.344 -0.899 46.344 -1.493 QT
46.344 -2.289 46.766 -2.797 QT
47.188 -3.305 47.852 -3.524 QT
48.516 -3.743 49.297 -3.743 QT
50.219 -3.743 50.906 -3.258 QT
51.422 -3.711 L
51.422 -3.743 51.5 -3.743 QT
51.641 -3.743 L
51.688 -3.743 51.734 -3.696 QT
51.781 -3.649 51.781 -3.602 QT
51.781 -1.243 L
51.781 -1.071 51.641 -1.071 QT
51.422 -1.071 L
51.266 -1.071 51.266 -1.243 QT
51.266 -2.18 50.742 -2.75 QT
50.219 -3.321 49.281 -3.321 QT
48.469 -3.321 47.875 -3.024 QT
47.281 -2.727 47.281 -1.993 QT
47.281 -1.493 47.703 -1.172 QT
48.125 -0.852 48.703 -0.711 QT
49.922 -0.493 L
50.547 -0.352 51.078 -0.016 QT
51.609 0.32 51.922 0.828 QT
52.234 1.336 52.234 1.976 QT
52.234 2.632 52.008 3.109 QT
51.781 3.586 51.383 3.906 QT
50.984 4.226 50.438 4.375 QT
49.891 4.523 49.297 4.523 QT
48.172 4.523 47.375 3.773 QT
46.703 4.476 L
46.703 4.523 46.609 4.523 QT
46.5 4.523 L
46.344 4.523 46.344 4.367 QT
cp
f
GR
GS
[1 0 0 1 380.9761 96.66332] CT
N
53.319 7.804 M
53.319 7.179 L
53.928 7.179 54.327 7.078 QT
54.725 6.976 54.725 6.601 QT
54.725 -2.071 L
54.725 -2.555 54.374 -2.68 QT
54.022 -2.805 53.319 -2.805 QT
53.319 -3.446 L
55.975 -3.633 L
55.975 -2.524 L
56.475 -3.071 57.131 -3.352 QT
57.788 -3.633 58.522 -3.633 QT
59.584 -3.633 60.436 -3.055 QT
61.288 -2.477 61.764 -1.547 QT
62.241 -0.618 62.241 0.429 QT
62.241 1.523 61.709 2.461 QT
61.178 3.398 60.264 3.961 QT
59.35 4.523 58.241 4.523 QT
56.944 4.523 56.038 3.461 QT
56.038 6.601 L
56.038 6.976 56.436 7.078 QT
56.834 7.179 57.444 7.179 QT
57.444 7.804 L
53.319 7.804 L
cp
56.038 2.57 M
56.35 3.211 56.913 3.632 QT
57.475 4.054 58.147 4.054 QT
58.772 4.054 59.249 3.718 QT
59.725 3.382 60.053 2.82 QT
60.381 2.257 60.53 1.632 QT
60.678 1.007 60.678 0.429 QT
60.678 -0.289 60.42 -1.125 QT
60.163 -1.961 59.631 -2.539 QT
59.1 -3.118 58.35 -3.118 QT
57.616 -3.118 57.006 -2.743 QT
56.397 -2.368 56.038 -1.727 QT
56.038 2.57 L
cp
f
GR
GS
[1 0 0 1 380.9761 96.66332] CT
N
63.397 4.32 M
63.397 3.679 L
64.022 3.679 64.413 3.586 QT
64.803 3.492 64.803 3.117 QT
64.803 -6.336 L
64.803 -6.821 64.663 -7.032 QT
64.522 -7.243 64.249 -7.289 QT
63.975 -7.336 63.397 -7.336 QT
63.397 -7.977 L
66.069 -8.164 L
66.069 3.117 L
66.069 3.492 66.467 3.586 QT
66.866 3.679 67.475 3.679 QT
67.475 4.32 L
63.397 4.32 L
cp
f
GR
GS
[1 0 0 1 380.9761 96.66332] CT
N
68.397 4.32 M
68.397 3.679 L
69.022 3.679 69.413 3.586 QT
69.803 3.492 69.803 3.117 QT
69.803 -1.805 L
69.803 -2.493 69.538 -2.649 QT
69.272 -2.805 68.491 -2.805 QT
68.491 -3.446 L
71.069 -3.633 L
71.069 3.117 L
71.069 3.492 71.413 3.586 QT
71.756 3.679 72.335 3.679 QT
72.335 4.32 L
68.397 4.32 L
cp
69.163 -6.727 M
69.163 -7.118 69.467 -7.422 QT
69.772 -7.727 70.147 -7.727 QT
70.413 -7.727 70.647 -7.594 QT
70.881 -7.461 71.014 -7.219 QT
71.147 -6.977 71.147 -6.727 QT
71.147 -6.336 70.85 -6.039 QT
70.553 -5.743 70.147 -5.743 QT
69.772 -5.743 69.467 -6.039 QT
69.163 -6.336 69.163 -6.727 QT
cp
f
GR
GS
[1 0 0 1 380.9761 96.66332] CT
N
74.694 2.164 M
74.694 -2.805 L
73.194 -2.805 L
73.194 -3.274 L
74.366 -3.274 74.92 -4.375 QT
75.475 -5.477 75.475 -6.758 QT
75.991 -6.758 L
75.991 -3.446 L
78.538 -3.446 L
78.538 -2.805 L
75.991 -2.805 L
75.991 2.117 L
75.991 2.867 76.241 3.429 QT
76.491 3.992 77.147 3.992 QT
77.756 3.992 78.03 3.398 QT
78.303 2.804 78.303 2.117 QT
78.303 1.054 L
78.835 1.054 L
78.835 2.164 L
78.835 2.726 78.624 3.273 QT
78.413 3.82 78.006 4.171 QT
77.6 4.523 77.022 4.523 QT
75.944 4.523 75.319 3.875 QT
74.694 3.226 74.694 2.164 QT
cp
f
GR
GS
0 1 1 RC
1 LJ
2 LW
N
347.997 96.663 M
377.978 96.663 L
S
GR
GS
[1 0 0 1 362.98773 96.66332] CT
0 1 1 RC
10.0 ML
2 LW
N
0 -5 M
0 5 L
-5 0 M
5 0 L
-3.536 -3.536 M
3.536 3.536 L
-3.536 3.536 M
3.536 -3.536 L
S
GR
%%Trailer
%%Pages: 1
%%EOF
